test/logs/vlt_dump.vcd
$version Generated by VerilatedVcd $end
$date Sat Sep 26 17:17:06 2020
 $end
$timescale   1ps $end

 $scope module TOP $end
  $var wire  1 * clock $end
  $var wire 32 - io_in1 [31:0] $end
  $var wire 32 . io_in2 [31:0] $end
  $var wire  6 , io_opcode [5:0] $end
  $var wire 32 / io_out [31:0] $end
  $var wire  1 + reset $end
  $scope module Top $end
   $var wire 33 # add_result [32:0] $end
   $var wire 32 ' and_result [31:0] $end
   $var wire  1 * clock $end
   $var wire 32 - io_in1 [31:0] $end
   $var wire 32 . io_in2 [31:0] $end
   $var wire  6 , io_opcode [5:0] $end
   $var wire 32 / io_out [31:0] $end
   $var wire 32 & or_result [31:0] $end
   $var wire  1 + reset $end
   $var wire  1 ) slt_result $end
   $var wire  1 ( sltu_result $end
   $var wire 32 % xor_result [31:0] $end
  $upscope $end
 $upscope $end
$enddefinitions $end


#0
b000000000000000000000000000000001 #
b00000000000000000000000000000001 %
b00000000000000000000000000000001 &
b00000000000000000000000000000000 '
1(
1)
1*
0+
b000000 ,
b00000000000000000000000000000000 -
b00000000000000000000000000000001 .
b00000000000000000000000000000001 /
#1
b000000000000000000000000000000111 #
b00000000000000000000000000000111 %
b00000000000000000000000000000111 &
0*
b00000000000000000000000000000001 -
b00000000000000000000000000000110 .
b00000000000000000000000000000111 /
#2
b000000000000000000000000000001101 #
b00000000000000000000000000001001 %
b00000000000000000000000000001011 &
b00000000000000000000000000000010 '
1*
b00000000000000000000000000000010 -
b00000000000000000000000000001011 .
b00000000000000000000000000001101 /
#3
b000000000000000000000000000010011 #
b00000000000000000000000000010011 %
b00000000000000000000000000010011 &
b00000000000000000000000000000000 '
0*
b00000000000000000000000000000011 -
b00000000000000000000000000010000 .
b00000000000000000000000000010011 /
#4
b000000000000000000000000000011001 #
b00000000000000000000000000010001 %
b00000000000000000000000000010101 &
b00000000000000000000000000000100 '
1*
b00000000000000000000000000000100 -
b00000000000000000000000000010101 .
b00000000000000000000000000011001 /
#5
b000000000000000000000000000011111 #
b00000000000000000000000000011111 %
b00000000000000000000000000011111 &
b00000000000000000000000000000000 '
0*
b00000000000000000000000000000101 -
b00000000000000000000000000011010 .
b00000000000000000000000000011111 /
#6
b000000000000000000000000000100101 #
b00000000000000000000000000011001 %
b00000000000000000000000000000110 '
1*
b00000000000000000000000000000110 -
b00000000000000000000000000011111 .
b00000000000000000000000000100101 /
#7
b000000000000000000000000000101011 #
b00000000000000000000000000100011 %
b00000000000000000000000000100111 &
b00000000000000000000000000000100 '
0*
b00000000000000000000000000000111 -
b00000000000000000000000000100100 .
b00000000000000000000000000101011 /
#8
b000000000000000000000000000110001 #
b00000000000000000000000000100001 %
b00000000000000000000000000101001 &
b00000000000000000000000000001000 '
1*
b00000000000000000000000000001000 -
b00000000000000000000000000101001 .
b00000000000000000000000000110001 /
#9
b000000000000000000000000000110111 #
b00000000000000000000000000100111 %
b00000000000000000000000000101111 &
0*
b00000000000000000000000000001001 -
b00000000000000000000000000101110 .
b00000000000000000000000000110111 /
#10
b000000000000000000000000000111101 #
b00000000000000000000000000111001 %
b00000000000000000000000000111011 &
b00000000000000000000000000000010 '
1*
b00000000000000000000000000001010 -
b00000000000000000000000000110011 .
b00000000000000000000000000111101 /
#11
b000000000000000000000000001000011 #
b00000000000000000000000000110011 %
b00000000000000000000000000001000 '
0*
b00000000000000000000000000001011 -
b00000000000000000000000000111000 .
b00000000000000000000000001000011 /
#12
b000000000000000000000000001001001 #
b00000000000000000000000000110001 %
b00000000000000000000000000111101 &
b00000000000000000000000000001100 '
1*
b00000000000000000000000000001100 -
b00000000000000000000000000111101 .
b00000000000000000000000001001001 /
#13
b000000000000000000000000001001111 #
b00000000000000000000000001001111 %
b00000000000000000000000001001111 &
b00000000000000000000000000000000 '
0*
b00000000000000000000000000001101 -
b00000000000000000000000001000010 .
b00000000000000000000000001001111 /
#14
b000000000000000000000000001010101 #
b00000000000000000000000001001001 %
b00000000000000000000000000000110 '
1*
b00000000000000000000000000001110 -
b00000000000000000000000001000111 .
b00000000000000000000000001010101 /
#15
b000000000000000000000000001011011 #
b00000000000000000000000001000011 %
b00000000000000000000000000001100 '
0*
b00000000000000000000000000001111 -
b00000000000000000000000001001100 .
b00000000000000000000000001011011 /
#16
b000000000000000000000000001100001 #
b00000000000000000000000001000001 %
b00000000000000000000000001010001 &
b00000000000000000000000000010000 '
1*
b00000000000000000000000000010000 -
b00000000000000000000000001010001 .
b00000000000000000000000001100001 /
#17
b000000000000000000000000001100111 #
b00000000000000000000000001000111 %
b00000000000000000000000001010111 &
0*
b00000000000000000000000000010001 -
b00000000000000000000000001010110 .
b00000000000000000000000001100111 /
#18
b000000000000000000000000001101101 #
b00000000000000000000000001001001 %
b00000000000000000000000001011011 &
b00000000000000000000000000010010 '
1*
b00000000000000000000000000010010 -
b00000000000000000000000001011011 .
b00000000000000000000000001101101 /
#19
b000000000000000000000000001110011 #
b00000000000000000000000001110011 %
b00000000000000000000000001110011 &
b00000000000000000000000000000000 '
0*
b00000000000000000000000000010011 -
b00000000000000000000000001100000 .
b00000000000000000000000001110011 /
#20
b000000000000000000000000001111001 #
b00000000000000000000000001110001 %
b00000000000000000000000001110101 &
b00000000000000000000000000000100 '
1*
b00000000000000000000000000010100 -
b00000000000000000000000001100101 .
b00000000000000000000000001111001 /
#21
b000000000000000000000000001111111 #
b00000000000000000000000001111111 %
b00000000000000000000000001111111 &
b00000000000000000000000000000000 '
0*
b00000000000000000000000000010101 -
b00000000000000000000000001101010 .
b00000000000000000000000001111111 /
#22
b000000000000000000000000010000101 #
b00000000000000000000000001111001 %
b00000000000000000000000000000110 '
1*
b00000000000000000000000000010110 -
b00000000000000000000000001101111 .
b00000000000000000000000010000101 /
#23
b000000000000000000000000010001011 #
b00000000000000000000000001100011 %
b00000000000000000000000001110111 &
b00000000000000000000000000010100 '
0*
b00000000000000000000000000010111 -
b00000000000000000000000001110100 .
b00000000000000000000000010001011 /
#24
b000000000000000000000000010010001 #
b00000000000000000000000001100001 %
b00000000000000000000000001111001 &
b00000000000000000000000000011000 '
1*
b00000000000000000000000000011000 -
b00000000000000000000000001111001 .
b00000000000000000000000010010001 /
#25
b000000000000000000000000010010111 #
b00000000000000000000000001100111 %
b00000000000000000000000001111111 &
0*
b00000000000000000000000000011001 -
b00000000000000000000000001111110 .
b00000000000000000000000010010111 /
#26
b000000000000000000000000010011101 #
b00000000000000000000000010011001 %
b00000000000000000000000010011011 &
b00000000000000000000000000000010 '
1*
b00000000000000000000000000011010 -
b00000000000000000000000010000011 .
b00000000000000000000000010011101 /
#27
b000000000000000000000000010100011 #
b00000000000000000000000010010011 %
b00000000000000000000000000001000 '
0*
b00000000000000000000000000011011 -
b00000000000000000000000010001000 .
b00000000000000000000000010100011 /
#28
b000000000000000000000000010101001 #
b00000000000000000000000010010001 %
b00000000000000000000000010011101 &
b00000000000000000000000000001100 '
1*
b00000000000000000000000000011100 -
b00000000000000000000000010001101 .
b00000000000000000000000010101001 /
#29
b000000000000000000000000010101111 #
b00000000000000000000000010001111 %
b00000000000000000000000010011111 &
b00000000000000000000000000010000 '
0*
b00000000000000000000000000011101 -
b00000000000000000000000010010010 .
b00000000000000000000000010101111 /
#30
b000000000000000000000000010110101 #
b00000000000000000000000010001001 %
b00000000000000000000000000010110 '
1*
b00000000000000000000000000011110 -
b00000000000000000000000010010111 .
b00000000000000000000000010110101 /
#31
b000000000000000000000000010111011 #
b00000000000000000000000010000011 %
b00000000000000000000000000011100 '
0*
b00000000000000000000000000011111 -
b00000000000000000000000010011100 .
b00000000000000000000000010111011 /
#32
b000000000000000000000000011000001 #
b00000000000000000000000010000001 %
b00000000000000000000000010100001 &
b00000000000000000000000000100000 '
1*
b00000000000000000000000000100000 -
b00000000000000000000000010100001 .
b00000000000000000000000011000001 /
#33
b000000000000000000000000011000111 #
b00000000000000000000000010000111 %
b00000000000000000000000010100111 &
0*
b00000000000000000000000000100001 -
b00000000000000000000000010100110 .
b00000000000000000000000011000111 /
#34
b000000000000000000000000011001101 #
b00000000000000000000000010001001 %
b00000000000000000000000010101011 &
b00000000000000000000000000100010 '
1*
b00000000000000000000000000100010 -
b00000000000000000000000010101011 .
b00000000000000000000000011001101 /
#35
b000000000000000000000000011010011 #
b00000000000000000000000010010011 %
b00000000000000000000000010110011 &
b00000000000000000000000000100000 '
0*
b00000000000000000000000000100011 -
b00000000000000000000000010110000 .
b00000000000000000000000011010011 /
#36
b000000000000000000000000011011001 #
b00000000000000000000000010010001 %
b00000000000000000000000010110101 &
b00000000000000000000000000100100 '
1*
b00000000000000000000000000100100 -
b00000000000000000000000010110101 .
b00000000000000000000000011011001 /
#37
b000000000000000000000000011011111 #
b00000000000000000000000010011111 %
b00000000000000000000000010111111 &
b00000000000000000000000000100000 '
0*
b00000000000000000000000000100101 -
b00000000000000000000000010111010 .
b00000000000000000000000011011111 /
#38
b000000000000000000000000011100101 #
b00000000000000000000000010011001 %
b00000000000000000000000000100110 '
1*
b00000000000000000000000000100110 -
b00000000000000000000000010111111 .
b00000000000000000000000011100101 /
#39
b000000000000000000000000011101011 #
b00000000000000000000000011100011 %
b00000000000000000000000011100111 &
b00000000000000000000000000000100 '
0*
b00000000000000000000000000100111 -
b00000000000000000000000011000100 .
b00000000000000000000000011101011 /
#40
b000000000000000000000000011110001 #
b00000000000000000000000011100001 %
b00000000000000000000000011101001 &
b00000000000000000000000000001000 '
1*
b00000000000000000000000000101000 -
b00000000000000000000000011001001 .
b00000000000000000000000011110001 /
#41
b000000000000000000000000011110111 #
b00000000000000000000000011100111 %
b00000000000000000000000011101111 &
0*
b00000000000000000000000000101001 -
b00000000000000000000000011001110 .
b00000000000000000000000011110111 /
#42
b000000000000000000000000011111101 #
b00000000000000000000000011111001 %
b00000000000000000000000011111011 &
b00000000000000000000000000000010 '
1*
b00000000000000000000000000101010 -
b00000000000000000000000011010011 .
b00000000000000000000000011111101 /
#43
b000000000000000000000000100000011 #
b00000000000000000000000011110011 %
b00000000000000000000000000001000 '
0*
b00000000000000000000000000101011 -
b00000000000000000000000011011000 .
b00000000000000000000000100000011 /
#44
b000000000000000000000000100001001 #
b00000000000000000000000011110001 %
b00000000000000000000000011111101 &
b00000000000000000000000000001100 '
1*
b00000000000000000000000000101100 -
b00000000000000000000000011011101 .
b00000000000000000000000100001001 /
#45
b000000000000000000000000100001111 #
b00000000000000000000000011001111 %
b00000000000000000000000011101111 &
b00000000000000000000000000100000 '
0*
b00000000000000000000000000101101 -
b00000000000000000000000011100010 .
b00000000000000000000000100001111 /
#46
b000000000000000000000000100010101 #
b00000000000000000000000011001001 %
b00000000000000000000000000100110 '
1*
b00000000000000000000000000101110 -
b00000000000000000000000011100111 .
b00000000000000000000000100010101 /
#47
b000000000000000000000000100011011 #
b00000000000000000000000011000011 %
b00000000000000000000000000101100 '
0*
b00000000000000000000000000101111 -
b00000000000000000000000011101100 .
b00000000000000000000000100011011 /
#48
b000000000000000000000000100100001 #
b00000000000000000000000011000001 %
b00000000000000000000000011110001 &
b00000000000000000000000000110000 '
1*
b00000000000000000000000000110000 -
b00000000000000000000000011110001 .
b00000000000000000000000100100001 /
#49
b000000000000000000000000100100111 #
b00000000000000000000000011000111 %
b00000000000000000000000011110111 &
0*
b00000000000000000000000000110001 -
b00000000000000000000000011110110 .
b00000000000000000000000100100111 /
#50
b000000000000000000000000100101101 #
b00000000000000000000000011001001 %
b00000000000000000000000011111011 &
b00000000000000000000000000110010 '
1*
b00000000000000000000000000110010 -
b00000000000000000000000011111011 .
b00000000000000000000000100101101 /
#51
b000000000000000000000000100110011 #
b00000000000000000000000100110011 %
b00000000000000000000000100110011 &
b00000000000000000000000000000000 '
0*
b00000000000000000000000000110011 -
b00000000000000000000000100000000 .
b00000000000000000000000100110011 /
#52
b000000000000000000000000100111001 #
b00000000000000000000000100110001 %
b00000000000000000000000100110101 &
b00000000000000000000000000000100 '
1*
b00000000000000000000000000110100 -
b00000000000000000000000100000101 .
b00000000000000000000000100111001 /
#53
b000000000000000000000000100111111 #
b00000000000000000000000100111111 %
b00000000000000000000000100111111 &
b00000000000000000000000000000000 '
0*
b00000000000000000000000000110101 -
b00000000000000000000000100001010 .
b00000000000000000000000100111111 /
#54
b000000000000000000000000101000101 #
b00000000000000000000000100111001 %
b00000000000000000000000000000110 '
1*
b00000000000000000000000000110110 -
b00000000000000000000000100001111 .
b00000000000000000000000101000101 /
#55
b000000000000000000000000101001011 #
b00000000000000000000000100100011 %
b00000000000000000000000100110111 &
b00000000000000000000000000010100 '
0*
b00000000000000000000000000110111 -
b00000000000000000000000100010100 .
b00000000000000000000000101001011 /
#56
b000000000000000000000000101010001 #
b00000000000000000000000100100001 %
b00000000000000000000000100111001 &
b00000000000000000000000000011000 '
1*
b00000000000000000000000000111000 -
b00000000000000000000000100011001 .
b00000000000000000000000101010001 /
#57
b000000000000000000000000101010111 #
b00000000000000000000000100100111 %
b00000000000000000000000100111111 &
0*
b00000000000000000000000000111001 -
b00000000000000000000000100011110 .
b00000000000000000000000101010111 /
#58
b000000000000000000000000101011101 #
b00000000000000000000000100011001 %
b00000000000000000000000100111011 &
b00000000000000000000000000100010 '
1*
b00000000000000000000000000111010 -
b00000000000000000000000100100011 .
b00000000000000000000000101011101 /
#59
b000000000000000000000000101100011 #
b00000000000000000000000100010011 %
b00000000000000000000000000101000 '
0*
b00000000000000000000000000111011 -
b00000000000000000000000100101000 .
b00000000000000000000000101100011 /
#60
b000000000000000000000000101101001 #
b00000000000000000000000100010001 %
b00000000000000000000000100111101 &
b00000000000000000000000000101100 '
1*
b00000000000000000000000000111100 -
b00000000000000000000000100101101 .
b00000000000000000000000101101001 /
#61
b000000000000000000000000101101111 #
b00000000000000000000000100001111 %
b00000000000000000000000100111111 &
b00000000000000000000000000110000 '
0*
b00000000000000000000000000111101 -
b00000000000000000000000100110010 .
b00000000000000000000000101101111 /
#62
b000000000000000000000000101110101 #
b00000000000000000000000100001001 %
b00000000000000000000000000110110 '
1*
b00000000000000000000000000111110 -
b00000000000000000000000100110111 .
b00000000000000000000000101110101 /
#63
b000000000000000000000000101111011 #
b00000000000000000000000100000011 %
b00000000000000000000000000111100 '
0*
b00000000000000000000000000111111 -
b00000000000000000000000100111100 .
b00000000000000000000000101111011 /
#64
b000000000000000000000000110000001 #
b00000000000000000000000100000001 %
b00000000000000000000000101000001 &
b00000000000000000000000001000000 '
1*
b00000000000000000000000001000000 -
b00000000000000000000000101000001 .
b00000000000000000000000110000001 /
#65
b000000000000000000000000110000111 #
b00000000000000000000000100000111 %
b00000000000000000000000101000111 &
0*
b00000000000000000000000001000001 -
b00000000000000000000000101000110 .
b00000000000000000000000110000111 /
#66
b000000000000000000000000110001101 #
b00000000000000000000000100001001 %
b00000000000000000000000101001011 &
b00000000000000000000000001000010 '
1*
b00000000000000000000000001000010 -
b00000000000000000000000101001011 .
b00000000000000000000000110001101 /
#67
b000000000000000000000000110010011 #
b00000000000000000000000100010011 %
b00000000000000000000000101010011 &
b00000000000000000000000001000000 '
0*
b00000000000000000000000001000011 -
b00000000000000000000000101010000 .
b00000000000000000000000110010011 /
#68
b000000000000000000000000110011001 #
b00000000000000000000000100010001 %
b00000000000000000000000101010101 &
b00000000000000000000000001000100 '
1*
b00000000000000000000000001000100 -
b00000000000000000000000101010101 .
b00000000000000000000000110011001 /
#69
b000000000000000000000000110011111 #
b00000000000000000000000100011111 %
b00000000000000000000000101011111 &
b00000000000000000000000001000000 '
0*
b00000000000000000000000001000101 -
b00000000000000000000000101011010 .
b00000000000000000000000110011111 /
#70
b000000000000000000000000110100101 #
b00000000000000000000000100011001 %
b00000000000000000000000001000110 '
1*
b00000000000000000000000001000110 -
b00000000000000000000000101011111 .
b00000000000000000000000110100101 /
#71
b000000000000000000000000110101011 #
b00000000000000000000000100100011 %
b00000000000000000000000101100111 &
b00000000000000000000000001000100 '
0*
b00000000000000000000000001000111 -
b00000000000000000000000101100100 .
b00000000000000000000000110101011 /
#72
b000000000000000000000000110110001 #
b00000000000000000000000100100001 %
b00000000000000000000000101101001 &
b00000000000000000000000001001000 '
1*
b00000000000000000000000001001000 -
b00000000000000000000000101101001 .
b00000000000000000000000110110001 /
#73
b000000000000000000000000110110111 #
b00000000000000000000000100100111 %
b00000000000000000000000101101111 &
0*
b00000000000000000000000001001001 -
b00000000000000000000000101101110 .
b00000000000000000000000110110111 /
#74
b000000000000000000000000110111101 #
b00000000000000000000000100111001 %
b00000000000000000000000101111011 &
b00000000000000000000000001000010 '
1*
b00000000000000000000000001001010 -
b00000000000000000000000101110011 .
b00000000000000000000000110111101 /
#75
b000000000000000000000000111000011 #
b00000000000000000000000100110011 %
b00000000000000000000000001001000 '
0*
b00000000000000000000000001001011 -
b00000000000000000000000101111000 .
b00000000000000000000000111000011 /
#76
b000000000000000000000000111001001 #
b00000000000000000000000100110001 %
b00000000000000000000000101111101 &
b00000000000000000000000001001100 '
1*
b00000000000000000000000001001100 -
b00000000000000000000000101111101 .
b00000000000000000000000111001001 /
#77
b000000000000000000000000111001111 #
b00000000000000000000000111001111 %
b00000000000000000000000111001111 &
b00000000000000000000000000000000 '
0*
b00000000000000000000000001001101 -
b00000000000000000000000110000010 .
b00000000000000000000000111001111 /
#78
b000000000000000000000000111010101 #
b00000000000000000000000111001001 %
b00000000000000000000000000000110 '
1*
b00000000000000000000000001001110 -
b00000000000000000000000110000111 .
b00000000000000000000000111010101 /
#79
b000000000000000000000000111011011 #
b00000000000000000000000111000011 %
b00000000000000000000000000001100 '
0*
b00000000000000000000000001001111 -
b00000000000000000000000110001100 .
b00000000000000000000000111011011 /
#80
b000000000000000000000000111100001 #
b00000000000000000000000111000001 %
b00000000000000000000000111010001 &
b00000000000000000000000000010000 '
1*
b00000000000000000000000001010000 -
b00000000000000000000000110010001 .
b00000000000000000000000111100001 /
#81
b000000000000000000000000111100111 #
b00000000000000000000000111000111 %
b00000000000000000000000111010111 &
0*
b00000000000000000000000001010001 -
b00000000000000000000000110010110 .
b00000000000000000000000111100111 /
#82
b000000000000000000000000111101101 #
b00000000000000000000000111001001 %
b00000000000000000000000111011011 &
b00000000000000000000000000010010 '
1*
b00000000000000000000000001010010 -
b00000000000000000000000110011011 .
b00000000000000000000000111101101 /
#83
b000000000000000000000000111110011 #
b00000000000000000000000111110011 %
b00000000000000000000000111110011 &
b00000000000000000000000000000000 '
0*
b00000000000000000000000001010011 -
b00000000000000000000000110100000 .
b00000000000000000000000111110011 /
#84
b000000000000000000000000111111001 #
b00000000000000000000000111110001 %
b00000000000000000000000111110101 &
b00000000000000000000000000000100 '
1*
b00000000000000000000000001010100 -
b00000000000000000000000110100101 .
b00000000000000000000000111111001 /
#85
b000000000000000000000000111111111 #
b00000000000000000000000111111111 %
b00000000000000000000000111111111 &
b00000000000000000000000000000000 '
0*
b00000000000000000000000001010101 -
b00000000000000000000000110101010 .
b00000000000000000000000111111111 /
#86
b000000000000000000000001000000101 #
b00000000000000000000000111111001 %
b00000000000000000000000000000110 '
1*
b00000000000000000000000001010110 -
b00000000000000000000000110101111 .
b00000000000000000000001000000101 /
#87
b000000000000000000000001000001011 #
b00000000000000000000000111100011 %
b00000000000000000000000111110111 &
b00000000000000000000000000010100 '
0*
b00000000000000000000000001010111 -
b00000000000000000000000110110100 .
b00000000000000000000001000001011 /
#88
b000000000000000000000001000010001 #
b00000000000000000000000111100001 %
b00000000000000000000000111111001 &
b00000000000000000000000000011000 '
1*
b00000000000000000000000001011000 -
b00000000000000000000000110111001 .
b00000000000000000000001000010001 /
#89
b000000000000000000000001000010111 #
b00000000000000000000000111100111 %
b00000000000000000000000111111111 &
0*
b00000000000000000000000001011001 -
b00000000000000000000000110111110 .
b00000000000000000000001000010111 /
#90
b000000000000000000000001000011101 #
b00000000000000000000000110011001 %
b00000000000000000000000111011011 &
b00000000000000000000000001000010 '
1*
b00000000000000000000000001011010 -
b00000000000000000000000111000011 .
b00000000000000000000001000011101 /
#91
b000000000000000000000001000100011 #
b00000000000000000000000110010011 %
b00000000000000000000000001001000 '
0*
b00000000000000000000000001011011 -
b00000000000000000000000111001000 .
b00000000000000000000001000100011 /
#92
b000000000000000000000001000101001 #
b00000000000000000000000110010001 %
b00000000000000000000000111011101 &
b00000000000000000000000001001100 '
1*
b00000000000000000000000001011100 -
b00000000000000000000000111001101 .
b00000000000000000000001000101001 /
#93
b000000000000000000000001000101111 #
b00000000000000000000000110001111 %
b00000000000000000000000111011111 &
b00000000000000000000000001010000 '
0*
b00000000000000000000000001011101 -
b00000000000000000000000111010010 .
b00000000000000000000001000101111 /
#94
b000000000000000000000001000110101 #
b00000000000000000000000110001001 %
b00000000000000000000000001010110 '
1*
b00000000000000000000000001011110 -
b00000000000000000000000111010111 .
b00000000000000000000001000110101 /
#95
b000000000000000000000001000111011 #
b00000000000000000000000110000011 %
b00000000000000000000000001011100 '
0*
b00000000000000000000000001011111 -
b00000000000000000000000111011100 .
b00000000000000000000001000111011 /
#96
b000000000000000000000001001000001 #
b00000000000000000000000110000001 %
b00000000000000000000000111100001 &
b00000000000000000000000001100000 '
1*
b00000000000000000000000001100000 -
b00000000000000000000000111100001 .
b00000000000000000000001001000001 /
#97
b000000000000000000000001001000111 #
b00000000000000000000000110000111 %
b00000000000000000000000111100111 &
0*
b00000000000000000000000001100001 -
b00000000000000000000000111100110 .
b00000000000000000000001001000111 /
#98
b000000000000000000000001001001101 #
b00000000000000000000000110001001 %
b00000000000000000000000111101011 &
b00000000000000000000000001100010 '
1*
b00000000000000000000000001100010 -
b00000000000000000000000111101011 .
b00000000000000000000001001001101 /
#99
b000000000000000000000001001010011 #
b00000000000000000000000110010011 %
b00000000000000000000000111110011 &
b00000000000000000000000001100000 '
0*
b00000000000000000000000001100011 -
b00000000000000000000000111110000 .
b00000000000000000000001001010011 /
#100
b000000000000000000000001001011001 #
b00000000000000000000000110010001 %
b00000000000000000000000111110101 &
b00000000000000000000000001100100 '
1*
b00000000000000000000000001100100 -
b00000000000000000000000111110101 .
b00000000000000000000001001011001 /
