test/logs/vlt_dump.vcd
$version Generated by VerilatedVcd $end
$date Sun Sep 20 19:54:32 2020
 $end
$timescale   1ps $end

 $scope module TOP $end
  $var wire  1 c clock $end
  $var wire  5 e io_rs1_addr [4:0] $end
  $var wire 64 f io_rs1_data [63:0] $end
  $var wire  5 h io_rs2_addr [4:0] $end
  $var wire 64 i io_rs2_data [63:0] $end
  $var wire  5 k io_waddr [4:0] $end
  $var wire 64 l io_wdata [63:0] $end
  $var wire  1 n io_wen $end
  $var wire  1 d reset $end
  $scope module Top $end
   $var wire  1 c clock $end
   $var wire  5 e io_rs1_addr [4:0] $end
   $var wire 64 f io_rs1_data [63:0] $end
   $var wire  5 h io_rs2_addr [4:0] $end
   $var wire 64 i io_rs2_data [63:0] $end
   $var wire  5 k io_waddr [4:0] $end
   $var wire 64 l io_wdata [63:0] $end
   $var wire  1 n io_wen $end
   $var wire  1 d reset $end
   $var wire 64 # rf(0) [63:0] $end
   $var wire 64 % rf(1) [63:0] $end
   $var wire 64 7 rf(10) [63:0] $end
   $var wire 64 9 rf(11) [63:0] $end
   $var wire 64 ; rf(12) [63:0] $end
   $var wire 64 = rf(13) [63:0] $end
   $var wire 64 ? rf(14) [63:0] $end
   $var wire 64 A rf(15) [63:0] $end
   $var wire 64 C rf(16) [63:0] $end
   $var wire 64 E rf(17) [63:0] $end
   $var wire 64 G rf(18) [63:0] $end
   $var wire 64 I rf(19) [63:0] $end
   $var wire 64 ' rf(2) [63:0] $end
   $var wire 64 K rf(20) [63:0] $end
   $var wire 64 M rf(21) [63:0] $end
   $var wire 64 O rf(22) [63:0] $end
   $var wire 64 Q rf(23) [63:0] $end
   $var wire 64 S rf(24) [63:0] $end
   $var wire 64 U rf(25) [63:0] $end
   $var wire 64 W rf(26) [63:0] $end
   $var wire 64 Y rf(27) [63:0] $end
   $var wire 64 [ rf(28) [63:0] $end
   $var wire 64 ] rf(29) [63:0] $end
   $var wire 64 ) rf(3) [63:0] $end
   $var wire 64 _ rf(30) [63:0] $end
   $var wire 64 a rf(31) [63:0] $end
   $var wire 64 + rf(4) [63:0] $end
   $var wire 64 - rf(5) [63:0] $end
   $var wire 64 / rf(6) [63:0] $end
   $var wire 64 1 rf(7) [63:0] $end
   $var wire 64 3 rf(8) [63:0] $end
   $var wire 64 5 rf(9) [63:0] $end
   $var wire  5 e rf__T_2_addr [4:0] $end
   $var wire 64 o rf__T_2_data [63:0] $end
   $var wire  5 h rf__T_5_addr [4:0] $end
   $var wire 64 q rf__T_5_data [63:0] $end
   $var wire  5 k rf__T_addr [4:0] $end
   $var wire 64 l rf__T_data [63:0] $end
   $var wire  1 n rf__T_en $end
   $var wire  1 s rf__T_mask $end
  $upscope $end
 $upscope $end
$enddefinitions $end


#1
b0000000000000000000000000000000000000000000000000000000000000000 #
b0000000000000000000000000000000000000000000000000000000000000000 %
b0000000000000000000000000000000000000000000000000000000000000000 '
b0000000000000000000000000000000000000000000000000000000000000000 )
b0000000000000000000000000000000000000000000000000000000000000000 +
b0000000000000000000000000000000000000000000000000000000000000000 -
b0000000000000000000000000000000000000000000000000000000000000000 /
b0000000000000000000000000000000000000000000000000000000000000000 1
b0000000000000000000000000000000000000000000000000000000000000000 3
b0000000000000000000000000000000000000000000000000000000000000000 5
b0000000000000000000000000000000000000000000000000000000000000000 7
b0000000000000000000000000000000000000000000000000000000000000000 9
b0000000000000000000000000000000000000000000000000000000000000000 ;
b0000000000000000000000000000000000000000000000000000000000000000 =
b0000000000000000000000000000000000000000000000000000000000000000 ?
b0000000000000000000000000000000000000000000000000000000000000000 A
b0000000000000000000000000000000000000000000000000000000000000000 C
b0000000000000000000000000000000000000000000000000000000000000000 E
b0000000000000000000000000000000000000000000000000000000000000000 G
b0000000000000000000000000000000000000000000000000000000000000000 I
b0000000000000000000000000000000000000000000000000000000000000000 K
b0000000000000000000000000000000000000000000000000000000000000000 M
b0000000000000000000000000000000000000000000000000000000000000000 O
b0000000000000000000000000000000000000000000000000000000000000000 Q
b0000000000000000000000000000000000000000000000000000000000000000 S
b0000000000000000000000000000000000000000000000000000000000000000 U
b0000000000000000000000000000000000000000000000000000000000000000 W
b0000000000000000000000000000000000000000000000000000000000000000 Y
b0000000000000000000000000000000000000000000000000000000000000000 [
b0000000000000000000000000000000000000000000000000000000000000000 ]
b0000000000000000000000000000000000000000000000000000000000000000 _
b0000000000000000000000000000000000000000000000000000000000000000 a
1c
1d
b00000 e
b0000000000000000000000000000000000000000000000000000000000000000 f
b00001 h
b0000000000000000000000000000000000000000000000000000000000000000 i
b00001 k
b0000000000000000000000000000000000000000000000000000000000000001 l
1n
b0000000000000000000000000000000000000000000000000000000000000000 o
b0000000000000000000000000000000000000000000000000000000000000000 q
1s
#2
0c
b00001 e
b00010 h
b00010 k
b0000000000000000000000000000000000000000000000000000000000000010 l
#3
b0000000000000000000000000000000000000000000000000000000000000011 )
1c
b00010 e
b00011 h
b0000000000000000000000000000000000000000000000000000000000000011 i
b00011 k
b0000000000000000000000000000000000000000000000000000000000000011 l
b0000000000000000000000000000000000000000000000000000000000000011 q
#4
0c
b00011 e
b0000000000000000000000000000000000000000000000000000000000000011 f
b00100 h
b0000000000000000000000000000000000000000000000000000000000000000 i
b00100 k
b0000000000000000000000000000000000000000000000000000000000000100 l
b0000000000000000000000000000000000000000000000000000000000000011 o
b0000000000000000000000000000000000000000000000000000000000000000 q
#5
b0000000000000000000000000000000000000000000000000000000000000101 -
1c
0d
b00100 e
b0000000000000000000000000000000000000000000000000000000000000000 f
b00101 h
b0000000000000000000000000000000000000000000000000000000000000101 i
b00101 k
b0000000000000000000000000000000000000000000000000000000000000101 l
b0000000000000000000000000000000000000000000000000000000000000000 o
b0000000000000000000000000000000000000000000000000000000000000101 q
#6
0c
b00101 e
b0000000000000000000000000000000000000000000000000000000000000101 f
b00110 h
b0000000000000000000000000000000000000000000000000000000000000000 i
b00110 k
b0000000000000000000000000000000000000000000000000000000000000110 l
b0000000000000000000000000000000000000000000000000000000000000101 o
b0000000000000000000000000000000000000000000000000000000000000000 q
#7
b0000000000000000000000000000000000000000000000000000000000000111 1
1c
b00110 e
b0000000000000000000000000000000000000000000000000000000000000000 f
b00111 h
b0000000000000000000000000000000000000000000000000000000000000111 i
b00111 k
b0000000000000000000000000000000000000000000000000000000000000111 l
b0000000000000000000000000000000000000000000000000000000000000000 o
b0000000000000000000000000000000000000000000000000000000000000111 q
#8
0c
b00111 e
b0000000000000000000000000000000000000000000000000000000000000111 f
b01000 h
b0000000000000000000000000000000000000000000000000000000000000000 i
b01000 k
b0000000000000000000000000000000000000000000000000000000000001000 l
b0000000000000000000000000000000000000000000000000000000000000111 o
b0000000000000000000000000000000000000000000000000000000000000000 q
#9
b0000000000000000000000000000000000000000000000000000000000001001 5
1c
b01000 e
b0000000000000000000000000000000000000000000000000000000000000000 f
b01001 h
b0000000000000000000000000000000000000000000000000000000000001001 i
b01001 k
b0000000000000000000000000000000000000000000000000000000000001001 l
b0000000000000000000000000000000000000000000000000000000000000000 o
b0000000000000000000000000000000000000000000000000000000000001001 q
#10
0c
b01001 e
b0000000000000000000000000000000000000000000000000000000000001001 f
b01010 h
b0000000000000000000000000000000000000000000000000000000000000000 i
b01010 k
b0000000000000000000000000000000000000000000000000000000000001010 l
b0000000000000000000000000000000000000000000000000000000000001001 o
b0000000000000000000000000000000000000000000000000000000000000000 q
#11
b0000000000000000000000000000000000000000000000000000000000001011 9
1c
b01010 e
b0000000000000000000000000000000000000000000000000000000000000000 f
b01011 h
b0000000000000000000000000000000000000000000000000000000000001011 i
b01011 k
b0000000000000000000000000000000000000000000000000000000000001011 l
b0000000000000000000000000000000000000000000000000000000000000000 o
b0000000000000000000000000000000000000000000000000000000000001011 q
#12
0c
b01011 e
b0000000000000000000000000000000000000000000000000000000000001011 f
b01100 h
b0000000000000000000000000000000000000000000000000000000000000000 i
b01100 k
b0000000000000000000000000000000000000000000000000000000000001100 l
b0000000000000000000000000000000000000000000000000000000000001011 o
b0000000000000000000000000000000000000000000000000000000000000000 q
#13
b0000000000000000000000000000000000000000000000000000000000001101 =
1c
b01100 e
b0000000000000000000000000000000000000000000000000000000000000000 f
b01101 h
b0000000000000000000000000000000000000000000000000000000000001101 i
b01101 k
b0000000000000000000000000000000000000000000000000000000000001101 l
b0000000000000000000000000000000000000000000000000000000000000000 o
b0000000000000000000000000000000000000000000000000000000000001101 q
#14
0c
b01101 e
b0000000000000000000000000000000000000000000000000000000000001101 f
b01110 h
b0000000000000000000000000000000000000000000000000000000000000000 i
b01110 k
b0000000000000000000000000000000000000000000000000000000000001110 l
b0000000000000000000000000000000000000000000000000000000000001101 o
b0000000000000000000000000000000000000000000000000000000000000000 q
#15
b0000000000000000000000000000000000000000000000000000000000001111 A
1c
b01110 e
b0000000000000000000000000000000000000000000000000000000000000000 f
b01111 h
b0000000000000000000000000000000000000000000000000000000000001111 i
b01111 k
b0000000000000000000000000000000000000000000000000000000000001111 l
b0000000000000000000000000000000000000000000000000000000000000000 o
b0000000000000000000000000000000000000000000000000000000000001111 q
#16
0c
b01111 e
b0000000000000000000000000000000000000000000000000000000000001111 f
b10000 h
b0000000000000000000000000000000000000000000000000000000000000000 i
b10000 k
b0000000000000000000000000000000000000000000000000000000000010000 l
b0000000000000000000000000000000000000000000000000000000000001111 o
b0000000000000000000000000000000000000000000000000000000000000000 q
#17
b0000000000000000000000000000000000000000000000000000000000010001 E
1c
b10000 e
b0000000000000000000000000000000000000000000000000000000000000000 f
b10001 h
b0000000000000000000000000000000000000000000000000000000000010001 i
b10001 k
b0000000000000000000000000000000000000000000000000000000000010001 l
b0000000000000000000000000000000000000000000000000000000000000000 o
b0000000000000000000000000000000000000000000000000000000000010001 q
#18
0c
b10001 e
b0000000000000000000000000000000000000000000000000000000000010001 f
b10010 h
b0000000000000000000000000000000000000000000000000000000000000000 i
b10010 k
b0000000000000000000000000000000000000000000000000000000000010010 l
b0000000000000000000000000000000000000000000000000000000000010001 o
b0000000000000000000000000000000000000000000000000000000000000000 q
#19
b0000000000000000000000000000000000000000000000000000000000010011 I
1c
b10010 e
b0000000000000000000000000000000000000000000000000000000000000000 f
b10011 h
b0000000000000000000000000000000000000000000000000000000000010011 i
b10011 k
b0000000000000000000000000000000000000000000000000000000000010011 l
b0000000000000000000000000000000000000000000000000000000000000000 o
b0000000000000000000000000000000000000000000000000000000000010011 q
#20
0c
b10011 e
b0000000000000000000000000000000000000000000000000000000000010011 f
b10100 h
b0000000000000000000000000000000000000000000000000000000000000000 i
b10100 k
b0000000000000000000000000000000000000000000000000000000000010100 l
b0000000000000000000000000000000000000000000000000000000000010011 o
b0000000000000000000000000000000000000000000000000000000000000000 q
#21
b0000000000000000000000000000000000000000000000000000000000010101 M
1c
b10100 e
b0000000000000000000000000000000000000000000000000000000000000000 f
b10101 h
b0000000000000000000000000000000000000000000000000000000000010101 i
b10101 k
b0000000000000000000000000000000000000000000000000000000000010101 l
b0000000000000000000000000000000000000000000000000000000000000000 o
b0000000000000000000000000000000000000000000000000000000000010101 q
#22
0c
b10101 e
b0000000000000000000000000000000000000000000000000000000000010101 f
b10110 h
b0000000000000000000000000000000000000000000000000000000000000000 i
b10110 k
b0000000000000000000000000000000000000000000000000000000000010110 l
b0000000000000000000000000000000000000000000000000000000000010101 o
b0000000000000000000000000000000000000000000000000000000000000000 q
#23
b0000000000000000000000000000000000000000000000000000000000010111 Q
1c
b10110 e
b0000000000000000000000000000000000000000000000000000000000000000 f
b10111 h
b0000000000000000000000000000000000000000000000000000000000010111 i
b10111 k
b0000000000000000000000000000000000000000000000000000000000010111 l
b0000000000000000000000000000000000000000000000000000000000000000 o
b0000000000000000000000000000000000000000000000000000000000010111 q
#24
0c
b10111 e
b0000000000000000000000000000000000000000000000000000000000010111 f
b11000 h
b0000000000000000000000000000000000000000000000000000000000000000 i
b11000 k
b0000000000000000000000000000000000000000000000000000000000011000 l
b0000000000000000000000000000000000000000000000000000000000010111 o
b0000000000000000000000000000000000000000000000000000000000000000 q
#25
b0000000000000000000000000000000000000000000000000000000000011001 U
1c
b11000 e
b0000000000000000000000000000000000000000000000000000000000000000 f
b11001 h
b0000000000000000000000000000000000000000000000000000000000011001 i
b11001 k
b0000000000000000000000000000000000000000000000000000000000011001 l
b0000000000000000000000000000000000000000000000000000000000000000 o
b0000000000000000000000000000000000000000000000000000000000011001 q
#26
0c
b11001 e
b0000000000000000000000000000000000000000000000000000000000011001 f
b11010 h
b0000000000000000000000000000000000000000000000000000000000000000 i
b11010 k
b0000000000000000000000000000000000000000000000000000000000011010 l
b0000000000000000000000000000000000000000000000000000000000011001 o
b0000000000000000000000000000000000000000000000000000000000000000 q
#27
b0000000000000000000000000000000000000000000000000000000000011011 Y
1c
b11010 e
b0000000000000000000000000000000000000000000000000000000000000000 f
b11011 h
b0000000000000000000000000000000000000000000000000000000000011011 i
b11011 k
b0000000000000000000000000000000000000000000000000000000000011011 l
b0000000000000000000000000000000000000000000000000000000000000000 o
b0000000000000000000000000000000000000000000000000000000000011011 q
#28
0c
b11011 e
b0000000000000000000000000000000000000000000000000000000000011011 f
b11100 h
b0000000000000000000000000000000000000000000000000000000000000000 i
b11100 k
b0000000000000000000000000000000000000000000000000000000000011100 l
b0000000000000000000000000000000000000000000000000000000000011011 o
b0000000000000000000000000000000000000000000000000000000000000000 q
#29
b0000000000000000000000000000000000000000000000000000000000011101 ]
1c
b11100 e
b0000000000000000000000000000000000000000000000000000000000000000 f
b11101 h
b0000000000000000000000000000000000000000000000000000000000011101 i
b11101 k
b0000000000000000000000000000000000000000000000000000000000011101 l
b0000000000000000000000000000000000000000000000000000000000000000 o
b0000000000000000000000000000000000000000000000000000000000011101 q
#30
0c
b11101 e
b0000000000000000000000000000000000000000000000000000000000011101 f
b11110 h
b0000000000000000000000000000000000000000000000000000000000000000 i
b11110 k
b0000000000000000000000000000000000000000000000000000000000011110 l
b0000000000000000000000000000000000000000000000000000000000011101 o
b0000000000000000000000000000000000000000000000000000000000000000 q
#31
b0000000000000000000000000000000000000000000000000000000000011111 a
1c
b11110 e
b0000000000000000000000000000000000000000000000000000000000000000 f
b11111 h
b0000000000000000000000000000000000000000000000000000000000011111 i
b11111 k
b0000000000000000000000000000000000000000000000000000000000011111 l
b0000000000000000000000000000000000000000000000000000000000000000 o
b0000000000000000000000000000000000000000000000000000000000011111 q
#32
0c
b11111 e
b0000000000000000000000000000000000000000000000000000000000011111 f
b00000 h
b0000000000000000000000000000000000000000000000000000000000000000 i
b00000 k
b0000000000000000000000000000000000000000000000000000000000100000 l
b0000000000000000000000000000000000000000000000000000000000011111 o
b0000000000000000000000000000000000000000000000000000000000000000 q
#33
b0000000000000000000000000000000000000000000000000000000000100001 %
1c
b00000 e
b0000000000000000000000000000000000000000000000000000000000000000 f
b00001 h
b0000000000000000000000000000000000000000000000000000000000100001 i
b00001 k
b0000000000000000000000000000000000000000000000000000000000100001 l
b0000000000000000000000000000000000000000000000000000000000000000 o
b0000000000000000000000000000000000000000000000000000000000100001 q
#34
0c
b00001 e
b0000000000000000000000000000000000000000000000000000000000100001 f
b00010 h
b0000000000000000000000000000000000000000000000000000000000000000 i
b00010 k
b0000000000000000000000000000000000000000000000000000000000100010 l
b0000000000000000000000000000000000000000000000000000000000100001 o
b0000000000000000000000000000000000000000000000000000000000000000 q
#35
b0000000000000000000000000000000000000000000000000000000000100011 )
1c
b00010 e
b0000000000000000000000000000000000000000000000000000000000000000 f
b00011 h
b0000000000000000000000000000000000000000000000000000000000100011 i
b00011 k
b0000000000000000000000000000000000000000000000000000000000100011 l
b0000000000000000000000000000000000000000000000000000000000000000 o
b0000000000000000000000000000000000000000000000000000000000100011 q
#36
0c
b00011 e
b0000000000000000000000000000000000000000000000000000000000100011 f
b00100 h
b0000000000000000000000000000000000000000000000000000000000000000 i
b00100 k
b0000000000000000000000000000000000000000000000000000000000100100 l
b0000000000000000000000000000000000000000000000000000000000100011 o
b0000000000000000000000000000000000000000000000000000000000000000 q
#37
b0000000000000000000000000000000000000000000000000000000000100101 -
1c
b00100 e
b0000000000000000000000000000000000000000000000000000000000000000 f
b00101 h
b0000000000000000000000000000000000000000000000000000000000100101 i
b00101 k
b0000000000000000000000000000000000000000000000000000000000100101 l
b0000000000000000000000000000000000000000000000000000000000000000 o
b0000000000000000000000000000000000000000000000000000000000100101 q
#38
0c
b00101 e
b0000000000000000000000000000000000000000000000000000000000100101 f
b00110 h
b0000000000000000000000000000000000000000000000000000000000000000 i
b00110 k
b0000000000000000000000000000000000000000000000000000000000100110 l
b0000000000000000000000000000000000000000000000000000000000100101 o
b0000000000000000000000000000000000000000000000000000000000000000 q
#39
b0000000000000000000000000000000000000000000000000000000000100111 1
1c
b00110 e
b0000000000000000000000000000000000000000000000000000000000000000 f
b00111 h
b0000000000000000000000000000000000000000000000000000000000100111 i
b00111 k
b0000000000000000000000000000000000000000000000000000000000100111 l
b0000000000000000000000000000000000000000000000000000000000000000 o
b0000000000000000000000000000000000000000000000000000000000100111 q
#40
0c
b00111 e
b0000000000000000000000000000000000000000000000000000000000100111 f
b01000 h
b0000000000000000000000000000000000000000000000000000000000000000 i
b01000 k
b0000000000000000000000000000000000000000000000000000000000101000 l
b0000000000000000000000000000000000000000000000000000000000100111 o
b0000000000000000000000000000000000000000000000000000000000000000 q
#41
b0000000000000000000000000000000000000000000000000000000000101001 5
1c
b01000 e
b0000000000000000000000000000000000000000000000000000000000000000 f
b01001 h
b0000000000000000000000000000000000000000000000000000000000101001 i
b01001 k
b0000000000000000000000000000000000000000000000000000000000101001 l
b0000000000000000000000000000000000000000000000000000000000000000 o
b0000000000000000000000000000000000000000000000000000000000101001 q
#42
0c
b01001 e
b0000000000000000000000000000000000000000000000000000000000101001 f
b01010 h
b0000000000000000000000000000000000000000000000000000000000000000 i
b01010 k
b0000000000000000000000000000000000000000000000000000000000101010 l
b0000000000000000000000000000000000000000000000000000000000101001 o
b0000000000000000000000000000000000000000000000000000000000000000 q
#43
b0000000000000000000000000000000000000000000000000000000000101011 9
1c
b01010 e
b0000000000000000000000000000000000000000000000000000000000000000 f
b01011 h
b0000000000000000000000000000000000000000000000000000000000101011 i
b01011 k
b0000000000000000000000000000000000000000000000000000000000101011 l
b0000000000000000000000000000000000000000000000000000000000000000 o
b0000000000000000000000000000000000000000000000000000000000101011 q
#44
0c
b01011 e
b0000000000000000000000000000000000000000000000000000000000101011 f
b01100 h
b0000000000000000000000000000000000000000000000000000000000000000 i
b01100 k
b0000000000000000000000000000000000000000000000000000000000101100 l
b0000000000000000000000000000000000000000000000000000000000101011 o
b0000000000000000000000000000000000000000000000000000000000000000 q
#45
b0000000000000000000000000000000000000000000000000000000000101101 =
1c
b01100 e
b0000000000000000000000000000000000000000000000000000000000000000 f
b01101 h
b0000000000000000000000000000000000000000000000000000000000101101 i
b01101 k
b0000000000000000000000000000000000000000000000000000000000101101 l
b0000000000000000000000000000000000000000000000000000000000000000 o
b0000000000000000000000000000000000000000000000000000000000101101 q
#46
0c
b01101 e
b0000000000000000000000000000000000000000000000000000000000101101 f
b01110 h
b0000000000000000000000000000000000000000000000000000000000000000 i
b01110 k
b0000000000000000000000000000000000000000000000000000000000101110 l
b0000000000000000000000000000000000000000000000000000000000101101 o
b0000000000000000000000000000000000000000000000000000000000000000 q
#47
b0000000000000000000000000000000000000000000000000000000000101111 A
1c
b01110 e
b0000000000000000000000000000000000000000000000000000000000000000 f
b01111 h
b0000000000000000000000000000000000000000000000000000000000101111 i
b01111 k
b0000000000000000000000000000000000000000000000000000000000101111 l
b0000000000000000000000000000000000000000000000000000000000000000 o
b0000000000000000000000000000000000000000000000000000000000101111 q
#48
0c
b01111 e
b0000000000000000000000000000000000000000000000000000000000101111 f
b10000 h
b0000000000000000000000000000000000000000000000000000000000000000 i
b10000 k
b0000000000000000000000000000000000000000000000000000000000110000 l
b0000000000000000000000000000000000000000000000000000000000101111 o
b0000000000000000000000000000000000000000000000000000000000000000 q
#49
b0000000000000000000000000000000000000000000000000000000000110001 E
1c
b10000 e
b0000000000000000000000000000000000000000000000000000000000000000 f
b10001 h
b0000000000000000000000000000000000000000000000000000000000110001 i
b10001 k
b0000000000000000000000000000000000000000000000000000000000110001 l
b0000000000000000000000000000000000000000000000000000000000000000 o
b0000000000000000000000000000000000000000000000000000000000110001 q
#50
0c
b10001 e
b0000000000000000000000000000000000000000000000000000000000110001 f
b10010 h
b0000000000000000000000000000000000000000000000000000000000000000 i
b10010 k
b0000000000000000000000000000000000000000000000000000000000110010 l
b0000000000000000000000000000000000000000000000000000000000110001 o
b0000000000000000000000000000000000000000000000000000000000000000 q
#51
b0000000000000000000000000000000000000000000000000000000000110011 I
1c
b10010 e
b0000000000000000000000000000000000000000000000000000000000000000 f
b10011 h
b0000000000000000000000000000000000000000000000000000000000110011 i
b10011 k
b0000000000000000000000000000000000000000000000000000000000110011 l
b0000000000000000000000000000000000000000000000000000000000000000 o
b0000000000000000000000000000000000000000000000000000000000110011 q
#52
0c
b10011 e
b0000000000000000000000000000000000000000000000000000000000110011 f
b10100 h
b0000000000000000000000000000000000000000000000000000000000000000 i
b10100 k
b0000000000000000000000000000000000000000000000000000000000110100 l
b0000000000000000000000000000000000000000000000000000000000110011 o
b0000000000000000000000000000000000000000000000000000000000000000 q
#53
b0000000000000000000000000000000000000000000000000000000000110101 M
1c
b10100 e
b0000000000000000000000000000000000000000000000000000000000000000 f
b10101 h
b0000000000000000000000000000000000000000000000000000000000110101 i
b10101 k
b0000000000000000000000000000000000000000000000000000000000110101 l
b0000000000000000000000000000000000000000000000000000000000000000 o
b0000000000000000000000000000000000000000000000000000000000110101 q
#54
0c
b10101 e
b0000000000000000000000000000000000000000000000000000000000110101 f
b10110 h
b0000000000000000000000000000000000000000000000000000000000000000 i
b10110 k
b0000000000000000000000000000000000000000000000000000000000110110 l
b0000000000000000000000000000000000000000000000000000000000110101 o
b0000000000000000000000000000000000000000000000000000000000000000 q
#55
b0000000000000000000000000000000000000000000000000000000000110111 Q
1c
b10110 e
b0000000000000000000000000000000000000000000000000000000000000000 f
b10111 h
b0000000000000000000000000000000000000000000000000000000000110111 i
b10111 k
b0000000000000000000000000000000000000000000000000000000000110111 l
b0000000000000000000000000000000000000000000000000000000000000000 o
b0000000000000000000000000000000000000000000000000000000000110111 q
#56
0c
b10111 e
b0000000000000000000000000000000000000000000000000000000000110111 f
b11000 h
b0000000000000000000000000000000000000000000000000000000000000000 i
b11000 k
b0000000000000000000000000000000000000000000000000000000000111000 l
b0000000000000000000000000000000000000000000000000000000000110111 o
b0000000000000000000000000000000000000000000000000000000000000000 q
#57
b0000000000000000000000000000000000000000000000000000000000111001 U
1c
b11000 e
b0000000000000000000000000000000000000000000000000000000000000000 f
b11001 h
b0000000000000000000000000000000000000000000000000000000000111001 i
b11001 k
b0000000000000000000000000000000000000000000000000000000000111001 l
b0000000000000000000000000000000000000000000000000000000000000000 o
b0000000000000000000000000000000000000000000000000000000000111001 q
#58
0c
b11001 e
b0000000000000000000000000000000000000000000000000000000000111001 f
b11010 h
b0000000000000000000000000000000000000000000000000000000000000000 i
b11010 k
b0000000000000000000000000000000000000000000000000000000000111010 l
b0000000000000000000000000000000000000000000000000000000000111001 o
b0000000000000000000000000000000000000000000000000000000000000000 q
#59
b0000000000000000000000000000000000000000000000000000000000111011 Y
1c
b11010 e
b0000000000000000000000000000000000000000000000000000000000000000 f
b11011 h
b0000000000000000000000000000000000000000000000000000000000111011 i
b11011 k
b0000000000000000000000000000000000000000000000000000000000111011 l
b0000000000000000000000000000000000000000000000000000000000000000 o
b0000000000000000000000000000000000000000000000000000000000111011 q
#60
0c
b11011 e
b0000000000000000000000000000000000000000000000000000000000111011 f
b11100 h
b0000000000000000000000000000000000000000000000000000000000000000 i
b11100 k
b0000000000000000000000000000000000000000000000000000000000111100 l
b0000000000000000000000000000000000000000000000000000000000111011 o
b0000000000000000000000000000000000000000000000000000000000000000 q
#61
b0000000000000000000000000000000000000000000000000000000000111101 ]
1c
b11100 e
b0000000000000000000000000000000000000000000000000000000000000000 f
b11101 h
b0000000000000000000000000000000000000000000000000000000000111101 i
b11101 k
b0000000000000000000000000000000000000000000000000000000000111101 l
b0000000000000000000000000000000000000000000000000000000000000000 o
b0000000000000000000000000000000000000000000000000000000000111101 q
#62
0c
b11101 e
b0000000000000000000000000000000000000000000000000000000000111101 f
b11110 h
b0000000000000000000000000000000000000000000000000000000000000000 i
b11110 k
b0000000000000000000000000000000000000000000000000000000000111110 l
b0000000000000000000000000000000000000000000000000000000000111101 o
b0000000000000000000000000000000000000000000000000000000000000000 q
#63
b0000000000000000000000000000000000000000000000000000000000111111 a
1c
b11110 e
b0000000000000000000000000000000000000000000000000000000000000000 f
b11111 h
b0000000000000000000000000000000000000000000000000000000000111111 i
b11111 k
b0000000000000000000000000000000000000000000000000000000000111111 l
b0000000000000000000000000000000000000000000000000000000000000000 o
b0000000000000000000000000000000000000000000000000000000000111111 q
#64
0c
b11111 e
b0000000000000000000000000000000000000000000000000000000000111111 f
b00000 h
b0000000000000000000000000000000000000000000000000000000000000000 i
b00000 k
b0000000000000000000000000000000000000000000000000000000001000000 l
b0000000000000000000000000000000000000000000000000000000000111111 o
b0000000000000000000000000000000000000000000000000000000000000000 q
#65
b0000000000000000000000000000000000000000000000000000000001000001 %
1c
b00000 e
b0000000000000000000000000000000000000000000000000000000000000000 f
b00001 h
b0000000000000000000000000000000000000000000000000000000001000001 i
b00001 k
b0000000000000000000000000000000000000000000000000000000001000001 l
b0000000000000000000000000000000000000000000000000000000000000000 o
b0000000000000000000000000000000000000000000000000000000001000001 q
#66
0c
b00001 e
b0000000000000000000000000000000000000000000000000000000001000001 f
b00010 h
b0000000000000000000000000000000000000000000000000000000000000000 i
b00010 k
b0000000000000000000000000000000000000000000000000000000001000010 l
b0000000000000000000000000000000000000000000000000000000001000001 o
b0000000000000000000000000000000000000000000000000000000000000000 q
#67
b0000000000000000000000000000000000000000000000000000000001000011 )
1c
b00010 e
b0000000000000000000000000000000000000000000000000000000000000000 f
b00011 h
b0000000000000000000000000000000000000000000000000000000001000011 i
b00011 k
b0000000000000000000000000000000000000000000000000000000001000011 l
b0000000000000000000000000000000000000000000000000000000000000000 o
b0000000000000000000000000000000000000000000000000000000001000011 q
#68
0c
b00011 e
b0000000000000000000000000000000000000000000000000000000001000011 f
b00100 h
b0000000000000000000000000000000000000000000000000000000000000000 i
b00100 k
b0000000000000000000000000000000000000000000000000000000001000100 l
b0000000000000000000000000000000000000000000000000000000001000011 o
b0000000000000000000000000000000000000000000000000000000000000000 q
#69
b0000000000000000000000000000000000000000000000000000000001000101 -
1c
b00100 e
b0000000000000000000000000000000000000000000000000000000000000000 f
b00101 h
b0000000000000000000000000000000000000000000000000000000001000101 i
b00101 k
b0000000000000000000000000000000000000000000000000000000001000101 l
b0000000000000000000000000000000000000000000000000000000000000000 o
b0000000000000000000000000000000000000000000000000000000001000101 q
#70
0c
b00101 e
b0000000000000000000000000000000000000000000000000000000001000101 f
b00110 h
b0000000000000000000000000000000000000000000000000000000000000000 i
b00110 k
b0000000000000000000000000000000000000000000000000000000001000110 l
b0000000000000000000000000000000000000000000000000000000001000101 o
b0000000000000000000000000000000000000000000000000000000000000000 q
#71
b0000000000000000000000000000000000000000000000000000000001000111 1
1c
b00110 e
b0000000000000000000000000000000000000000000000000000000000000000 f
b00111 h
b0000000000000000000000000000000000000000000000000000000001000111 i
b00111 k
b0000000000000000000000000000000000000000000000000000000001000111 l
b0000000000000000000000000000000000000000000000000000000000000000 o
b0000000000000000000000000000000000000000000000000000000001000111 q
#72
0c
b00111 e
b0000000000000000000000000000000000000000000000000000000001000111 f
b01000 h
b0000000000000000000000000000000000000000000000000000000000000000 i
b01000 k
b0000000000000000000000000000000000000000000000000000000001001000 l
b0000000000000000000000000000000000000000000000000000000001000111 o
b0000000000000000000000000000000000000000000000000000000000000000 q
#73
b0000000000000000000000000000000000000000000000000000000001001001 5
1c
b01000 e
b0000000000000000000000000000000000000000000000000000000000000000 f
b01001 h
b0000000000000000000000000000000000000000000000000000000001001001 i
b01001 k
b0000000000000000000000000000000000000000000000000000000001001001 l
b0000000000000000000000000000000000000000000000000000000000000000 o
b0000000000000000000000000000000000000000000000000000000001001001 q
#74
0c
b01001 e
b0000000000000000000000000000000000000000000000000000000001001001 f
b01010 h
b0000000000000000000000000000000000000000000000000000000000000000 i
b01010 k
b0000000000000000000000000000000000000000000000000000000001001010 l
b0000000000000000000000000000000000000000000000000000000001001001 o
b0000000000000000000000000000000000000000000000000000000000000000 q
#75
b0000000000000000000000000000000000000000000000000000000001001011 9
1c
b01010 e
b0000000000000000000000000000000000000000000000000000000000000000 f
b01011 h
b0000000000000000000000000000000000000000000000000000000001001011 i
b01011 k
b0000000000000000000000000000000000000000000000000000000001001011 l
b0000000000000000000000000000000000000000000000000000000000000000 o
b0000000000000000000000000000000000000000000000000000000001001011 q
#76
0c
b01011 e
b0000000000000000000000000000000000000000000000000000000001001011 f
b01100 h
b0000000000000000000000000000000000000000000000000000000000000000 i
b01100 k
b0000000000000000000000000000000000000000000000000000000001001100 l
b0000000000000000000000000000000000000000000000000000000001001011 o
b0000000000000000000000000000000000000000000000000000000000000000 q
#77
b0000000000000000000000000000000000000000000000000000000001001101 =
1c
b01100 e
b0000000000000000000000000000000000000000000000000000000000000000 f
b01101 h
b0000000000000000000000000000000000000000000000000000000001001101 i
b01101 k
b0000000000000000000000000000000000000000000000000000000001001101 l
b0000000000000000000000000000000000000000000000000000000000000000 o
b0000000000000000000000000000000000000000000000000000000001001101 q
